{
    "notifications": [
                      {
                      "id": 5513,
                      "readed": true,
                      "created_at": "2014-08-29 10:12:09",
                      "has_actions": false,
                      "notificable": {
                      "id": "2083",
                      "type": "Attachment",
                      "title": "ava2.png"
                      },
                      "main_text": "создал документ",
                      "user": {
                      "id": 3,
                      "short_name": "Эльвир Нуриахметов",
                      "photo": {
                      "thumb_url": "https://iq300-edge.s3.amazonaws.com/uploads/user_profile/photo/3/thumb_ff1a91a8-3140-4e1a-9f92-a7130e3a2116.png",
                      "medium_url": "https://iq300-edge.s3.amazonaws.com/uploads/user_profile/photo/3/medium_ff1a91a8-3140-4e1a-9f92-a7130e3a2116.png",
                      "normal_url": "https://iq300-edge.s3.amazonaws.com/uploads/user_profile/photo/3/normal_ff1a91a8-3140-4e1a-9f92-a7130e3a2116.png"
                      }
                      }
                      },
                      {
                      "id": 6529,
                      "readed": true,
                      "created_at": "2014-10-02 07:21:54",
                      "has_actions": false,
                      "notificable": {
                      "id": "2423",
                      "type": "BaseTask",
                      "title": "«dsfsdfdsdsfsf»"
                      },
                      "main_text": "отредактировал черновик задачи в проекте",
                      "user": {
                      "id": 3,
                      "short_name": "Эльвир Нуриахметов",
                      "photo": {
                      "thumb_url": "https://iq300-edge.s3.amazonaws.com/uploads/user_profile/photo/3/thumb_ff1a91a8-3140-4e1a-9f92-a7130e3a2116.png",
                      "medium_url": "https://iq300-edge.s3.amazonaws.com/uploads/user_profile/photo/3/medium_ff1a91a8-3140-4e1a-9f92-a7130e3a2116.png",
                      "normal_url": "https://iq300-edge.s3.amazonaws.com/uploads/user_profile/photo/3/normal_ff1a91a8-3140-4e1a-9f92-a7130e3a2116.png"
                      }
                      }
                      },
                      {
                      "id": 3557,
                      "readed": true,
                      "created_at": "2014-02-27 06:30:07",
                      "has_actions": false,
                      "notificable": {
                      "id": "43",
                      "type": "BaseCommunity",
                      "title": "«Разработка, тестирование и эксплуатация IQ300»"
                      },
                      "main_text": "вступил в сообщество",
                      "user": {
                      "id": 146,
                      "short_name": "Артур Шайдуллин",
                      "photo": {
                      "thumb_url": "https://iq300-edge.s3.amazonaws.com/uploads/user_profile/photo/97/thumb_37b4f20f-5d3c-41d1-a81d-e5bc2a513ff4.jpeg",
                      "medium_url": "https://iq300-edge.s3.amazonaws.com/uploads/user_profile/photo/97/medium_37b4f20f-5d3c-41d1-a81d-e5bc2a513ff4.jpeg",
                      "normal_url": "https://iq300-edge.s3.amazonaws.com/uploads/user_profile/photo/97/normal_37b4f20f-5d3c-41d1-a81d-e5bc2a513ff4.jpeg"
                      }
                      }
                      },
                      {
                      "id": 3641,
                      "readed": true,
                      "created_at": "2014-02-28 06:34:00",
                      "has_actions": false,
                      "notificable": {
                      "id": "73",
                      "type": "Project",
                      "title": "Разработка мобильного приложения"
                      },
                      "main_text": "приглашает Вас в проект",
                      "user": null
                      },
                      {
                      "id": 3640,
                      "readed": true,
                      "created_at": "2014-02-28 06:34:00",
                      "has_actions": false,
                      "notificable": {
                      "id": "73",
                      "type": "Project",
                      "title": "Разработка мобильного приложения"
                      },
                      "main_text": "изменил поле \"группа\" участника \"Эльвир Нуриахметов\" в проекте",
                      "user": null
                      },
                      {
                      "id": 9742,
                      "readed": true,
                      "created_at": "2014-11-08 19:07:14",
                      "has_actions": false,
                      "notificable": {
                      "id": "2766",
                      "type": "BaseTask",
                      "title": "«здномер1»№-2766 от 08.11.2014"
                      },
                      "main_text": "оставил комментарий",
                      "user": {
                      "id": 195,
                      "short_name": "Ирина Михайлова",
                      "photo": {
                      "thumb_url": "https://iq300-edge.s3.amazonaws.com/uploads/user_profile/photo/133/thumb_b0c078fe-05f3-41bc-9691-ce5eadd18ebb.jpg",
                      "medium_url": "https://iq300-edge.s3.amazonaws.com/uploads/user_profile/photo/133/medium_b0c078fe-05f3-41bc-9691-ce5eadd18ebb.jpg",
                      "normal_url": "https://iq300-edge.s3.amazonaws.com/uploads/user_profile/photo/133/normal_b0c078fe-05f3-41bc-9691-ce5eadd18ebb.jpg"
                      }
                      }
                      },
                      {
                      "id": 30,
                      "readed": true,
                      "created_at": "2012-09-11 07:48:42",
                      "has_actions": false,
                      "notificable": {
                      "id": "2",
                      "type": "Contract",
                      "title": "«12345»"
                      },
                      "main_text": "Не найден перевод для текста активности automate_canceled ID=1730.",
                      "user": null
                      },
                      {
                      "id": 7068,
                      "readed": true,
                      "created_at": "2014-10-02 14:05:54",
                      "has_actions": false,
                      "notificable": {
                      "id": "2355",
                      "type": "BaseTask",
                      "title": "«tedst»№-2355 от 02.09.2014"
                      },
                      "main_text": "вернул задачу в работу",
                      "user": {
                      "id": 3,
                      "short_name": "Эльвир Нуриахметов",
                      "photo": {
                      "thumb_url": "https://iq300-edge.s3.amazonaws.com/uploads/user_profile/photo/3/thumb_ff1a91a8-3140-4e1a-9f92-a7130e3a2116.png",
                      "medium_url": "https://iq300-edge.s3.amazonaws.com/uploads/user_profile/photo/3/medium_ff1a91a8-3140-4e1a-9f92-a7130e3a2116.png",
                      "normal_url": "https://iq300-edge.s3.amazonaws.com/uploads/user_profile/photo/3/normal_ff1a91a8-3140-4e1a-9f92-a7130e3a2116.png"
                      }
                      }
                      },
                      {
                      "id": 2575,
                      "readed": true,
                      "created_at": "2013-10-18 05:13:08",
                      "has_actions": false,
                      "notificable": {
                      "id": "109",
                      "type": "DocShare",
                      "title": "ava.jpeg"
                      },
                      "main_text": "предоставил доступ к документу",
                      "user": {
                      "id": 125,
                      "short_name": "IQ300 System",
                      "photo": {
                      "thumb_url": "https://iq300-edge.s3.amazonaws.com/uploads/user_profile/photo/80/thumb_c286dc53-6ae9-4e55-9725-2323833dc9bf.png",
                      "medium_url": "https://iq300-edge.s3.amazonaws.com/uploads/user_profile/photo/80/medium_c286dc53-6ae9-4e55-9725-2323833dc9bf.png",
                      "normal_url": "https://iq300-edge.s3.amazonaws.com/uploads/user_profile/photo/80/normal_c286dc53-6ae9-4e55-9725-2323833dc9bf.png"
                      }
                      }
                      },
                      {
                      "id": 5295,
                      "readed": true,
                      "created_at": "2014-08-27 09:41:38",
                      "has_actions": false,
                      "notificable": {
                      "id": "2347",
                      "type": "BaseTask",
                      "title": "«test»№-2347 от 26.08.2014"
                      },
                      "main_text": "принял задачу",
                      "user": {
                      "id": 3,
                      "short_name": "Эльвир Нуриахметов",
                      "photo": {
                      "thumb_url": "https://iq300-edge.s3.amazonaws.com/uploads/user_profile/photo/3/thumb_ff1a91a8-3140-4e1a-9f92-a7130e3a2116.png",
                      "medium_url": "https://iq300-edge.s3.amazonaws.com/uploads/user_profile/photo/3/medium_ff1a91a8-3140-4e1a-9f92-a7130e3a2116.png",
                      "normal_url": "https://iq300-edge.s3.amazonaws.com/uploads/user_profile/photo/3/normal_ff1a91a8-3140-4e1a-9f92-a7130e3a2116.png"
                      }
                      }
                      },
                      {
                      "id": 4472,
                      "readed": true,
                      "created_at": "2014-06-19 10:04:56",
                      "has_actions": false,
                      "notificable": {
                      "id": "116",
                      "type": "Project",
                      "title": "ыввывы"
                      },
                      "main_text": "приглашает Вас в проект",
                      "user": null
                      },
                      {
                      "id": 6154,
                      "readed": true,
                      "created_at": "2014-09-16 06:04:56",
                      "has_actions": false,
                      "notificable": {
                      "id": "2400",
                      "type": "BaseTask",
                      "title": "«Тестирование интерфейса \"Задачи\" нового проекта»№-2400 от 09.09.2014"
                      },
                      "main_text": "отредактировал задачу",
                      "user": {
                      "id": 195,
                      "short_name": "Ирина Михайлова",
                      "photo": {
                      "thumb_url": "https://iq300-edge.s3.amazonaws.com/uploads/user_profile/photo/133/thumb_b0c078fe-05f3-41bc-9691-ce5eadd18ebb.jpg",
                      "medium_url": "https://iq300-edge.s3.amazonaws.com/uploads/user_profile/photo/133/medium_b0c078fe-05f3-41bc-9691-ce5eadd18ebb.jpg",
                      "normal_url": "https://iq300-edge.s3.amazonaws.com/uploads/user_profile/photo/133/normal_b0c078fe-05f3-41bc-9691-ce5eadd18ebb.jpg"
                      }
                      }
                      },
                      {
                      "id": 337,
                      "readed": true,
                      "created_at": "2012-11-08 20:21:53",
                      "has_actions": false,
                      "notificable": {
                      "id": "127",
                      "type": "BaseTask",
                      "title": "«кпкупкуп»№-127 от 09.11.2012"
                      },
                      "main_text": "поставил задачу",
                      "user": {
                      "id": 48,
                      "short_name": "Сидр Сидоров",
                      "photo": {
                      "thumb_url": "https://iq300-edge.s3.amazonaws.com/uploads/user_profile/photo/39/thumb_35ecc155-51e4-4e0d-b246-b5006d1da223.jpg",
                      "medium_url": "https://iq300-edge.s3.amazonaws.com/uploads/user_profile/photo/39/medium_35ecc155-51e4-4e0d-b246-b5006d1da223.jpg",
                      "normal_url": "https://iq300-edge.s3.amazonaws.com/uploads/user_profile/photo/39/normal_35ecc155-51e4-4e0d-b246-b5006d1da223.jpg"
                      }
                      }
                      },
                      {
                      "id": 52,
                      "readed": true,
                      "created_at": "2012-09-24 18:38:14",
                      "has_actions": false,
                      "notificable": {
                      "id": "24",
                      "type": "BaseTask",
                      "title": "«проверка внешнего исполнителя»№-24 от 24.09.2012"
                      },
                      "main_text": "поставил задачу",
                      "user": {
                      "id": 3,
                      "short_name": "Эльвир Нуриахметов",
                      "photo": {
                      "thumb_url": "https://iq300-edge.s3.amazonaws.com/uploads/user_profile/photo/3/thumb_ff1a91a8-3140-4e1a-9f92-a7130e3a2116.png",
                      "medium_url": "https://iq300-edge.s3.amazonaws.com/uploads/user_profile/photo/3/medium_ff1a91a8-3140-4e1a-9f92-a7130e3a2116.png",
                      "normal_url": "https://iq300-edge.s3.amazonaws.com/uploads/user_profile/photo/3/normal_ff1a91a8-3140-4e1a-9f92-a7130e3a2116.png"
                      }
                      }
                      },
                      {
                      "id": 6563,
                      "readed": true,
                      "created_at": "2014-10-02 07:22:32",
                      "has_actions": false,
                      "notificable": {
                      "id": "2424",
                      "type": "BaseTask",
                      "title": "«eerwwerewr»"
                      },
                      "main_text": "отредактировал черновик задачи в проекте",
                      "user": {
                      "id": 3,
                      "short_name": "Эльвир Нуриахметов",
                      "photo": {
                      "thumb_url": "https://iq300-edge.s3.amazonaws.com/uploads/user_profile/photo/3/thumb_ff1a91a8-3140-4e1a-9f92-a7130e3a2116.png",
                      "medium_url": "https://iq300-edge.s3.amazonaws.com/uploads/user_profile/photo/3/medium_ff1a91a8-3140-4e1a-9f92-a7130e3a2116.png",
                      "normal_url": "https://iq300-edge.s3.amazonaws.com/uploads/user_profile/photo/3/normal_ff1a91a8-3140-4e1a-9f92-a7130e3a2116.png"
                      }
                      }
                      },
                      {
                      "id": 2403,
                      "readed": true,
                      "created_at": "2013-09-18 04:32:21",
                      "has_actions": false,
                      "notificable": {
                      "id": "1322",
                      "type": "BaseTask",
                      "title": "«проыавпмоваырпм вамва»№-1322 от 19.08.2013"
                      },
                      "main_text": "отменил задачу",
                      "user": {
                      "id": 2,
                      "short_name": "Шамиль Хамадеев",
                      "photo": {
                      "thumb_url": "https://iq300-edge.s3.amazonaws.com/uploads/user_profile/photo/2/thumb_162862a3-e202-450e-b6b6-0cc50ab1aa46.jpg",
                      "medium_url": "https://iq300-edge.s3.amazonaws.com/uploads/user_profile/photo/2/medium_162862a3-e202-450e-b6b6-0cc50ab1aa46.jpg",
                      "normal_url": "https://iq300-edge.s3.amazonaws.com/uploads/user_profile/photo/2/normal_162862a3-e202-450e-b6b6-0cc50ab1aa46.jpg"
                      }
                      }
                      },
                      {
                      "id": 7992,
                      "readed": true,
                      "created_at": "2014-10-29 13:45:10",
                      "has_actions": false,
                      "notificable": {
                      "id": "119",
                      "type": "Project",
                      "title": "uio"
                      },
                      "main_text": "добавил документ",
                      "user": {
                      "id": 195,
                      "short_name": "Ирина Михайлова",
                      "photo": {
                      "thumb_url": "https://iq300-edge.s3.amazonaws.com/uploads/user_profile/photo/133/thumb_b0c078fe-05f3-41bc-9691-ce5eadd18ebb.jpg",
                      "medium_url": "https://iq300-edge.s3.amazonaws.com/uploads/user_profile/photo/133/medium_b0c078fe-05f3-41bc-9691-ce5eadd18ebb.jpg",
                      "normal_url": "https://iq300-edge.s3.amazonaws.com/uploads/user_profile/photo/133/normal_b0c078fe-05f3-41bc-9691-ce5eadd18ebb.jpg"
                      }
                      }
                      },
                      {
                      "id": 7244,
                      "readed": true,
                      "created_at": "2014-10-10 06:28:08",
                      "has_actions": false,
                      "notificable": {
                      "id": "2541",
                      "type": "BaseTask",
                      "title": "«Новая группа задач»№-2541 от 08.10.2014"
                      },
                      "main_text": "отредактировал поле вехи \"номер пункта\"",
                      "user": {
                      "id": 3,
                      "short_name": "Эльвир Нуриахметов",
                      "photo": {
                      "thumb_url": "https://iq300-edge.s3.amazonaws.com/uploads/user_profile/photo/3/thumb_ff1a91a8-3140-4e1a-9f92-a7130e3a2116.png",
                      "medium_url": "https://iq300-edge.s3.amazonaws.com/uploads/user_profile/photo/3/medium_ff1a91a8-3140-4e1a-9f92-a7130e3a2116.png",
                      "normal_url": "https://iq300-edge.s3.amazonaws.com/uploads/user_profile/photo/3/normal_ff1a91a8-3140-4e1a-9f92-a7130e3a2116.png"
                      }
                      }
                      },
                      {
                      "id": 3437,
                      "readed": true,
                      "created_at": "2013-12-23 12:16:38",
                      "has_actions": false,
                      "notificable": {
                      "id": "1953",
                      "type": "BaseTask",
                      "title": "«Поменять банер на главной странице»№-1953 от 23.12.2013"
                      },
                      "main_text": "поставил задачу",
                      "user": {
                      "id": 2,
                      "short_name": "Шамиль Хамадеев",
                      "photo": {
                      "thumb_url": "https://iq300-edge.s3.amazonaws.com/uploads/user_profile/photo/2/thumb_162862a3-e202-450e-b6b6-0cc50ab1aa46.jpg",
                      "medium_url": "https://iq300-edge.s3.amazonaws.com/uploads/user_profile/photo/2/medium_162862a3-e202-450e-b6b6-0cc50ab1aa46.jpg",
                      "normal_url": "https://iq300-edge.s3.amazonaws.com/uploads/user_profile/photo/2/normal_162862a3-e202-450e-b6b6-0cc50ab1aa46.jpg"
                      }
                      }
                      },
                      {
                      "id": 9811,
                      "readed": true,
                      "created_at": "2014-11-11 13:17:17",
                      "has_actions": false,
                      "notificable": {
                      "id": "43",
                      "type": "BaseCommunity",
                      "title": "«Разработка, тестирование и эксплуатация IQ300»"
                      },
                      "main_text": "вступил в сообщество",
                      "user": {
                      "id": 302,
                      "short_name": "Aeeee Sxxxxx",
                      "photo": {
                      "thumb_url": "https://iq300-edge.s3.amazonaws.com/uploads/user_profile/photo/245/thumb_486d65d5-935f-48a2-b0a0-e49323255d63.png",
                      "medium_url": "https://iq300-edge.s3.amazonaws.com/uploads/user_profile/photo/245/medium_486d65d5-935f-48a2-b0a0-e49323255d63.png",
                      "normal_url": "https://iq300-edge.s3.amazonaws.com/uploads/user_profile/photo/245/normal_486d65d5-935f-48a2-b0a0-e49323255d63.png"
                      }
                      }
                      }
                      ],
    "meta": {
        "collection_info": {
            "current_page": 1,
            "total_pages": 59,
            "total_count": 1177
        }
    }
}